{
    "response": {
        "status": "ok",
        "userTier": "developer",
        "total": 1663,
        "startIndex": 1,
        "pageSize": 10,
        "currentPage": 1,
        "pages": 167,
        "orderBy": "relevance",
        "results": [
            {
                "id": "uk-news/2024/apr/01/",
                "type": "article",
                "sectionId": "uk-news",
                "sectionName": "UK news",
                "webPublicationDate": "2024-04-01T00:00:00Z",
                "webTitle": "Title 1",
                "webUrl": "https://www.theguardian.com/1/",
                "apiUrl": "https://content.guardianapis.com/1/",
                "isHosted": false,
                "pillarId": "pillar/news",
                "pillarName": "News"                
            },
            {
                "id": "uk-news/2024/apr/02/",
                "type": "article",
                "sectionId": "uk-news",
                "sectionName": "UK news",
                "webPublicationDate": "2024-04-02T00:00:00Z",
                "webTitle": "Title 2",
                "webUrl": "https://www.theguardian.com/2/",
                "apiUrl": "https://content.guardianapis.com/2/",
                "isHosted": false,
                "pillarId": "pillar/news",
                "pillarName": "News"                
            },
            {
                "id": "uk-news/2024/apr/03/",
                "type": "article",
                "sectionId": "uk-news",
                "sectionName": "UK news",
                "webPublicationDate": "2024-04-03T00:00:00Z",
                "webTitle": "Title 3",
                "webUrl": "https://www.theguardian.com/3/",
                "apiUrl": "https://content.guardianapis.com/3/",
                "isHosted": false,
                "pillarId": "pillar/news",
                "pillarName": "News"                
            },
            {
                "id": "uk-news/2024/apr/04/",
                "type": "article",
                "sectionId": "uk-news",
                "sectionName": "UK news",
                "webPublicationDate": "2024-04-04T00:00:00Z",
                "webTitle": "Title 4",
                "webUrl": "https://www.theguardian.com/4/",
                "apiUrl": "https://content.guardianapis.com/4/",
                "isHosted": false,
                "pillarId": "pillar/news",
                "pillarName": "News"                
            },
            {
                "id": "uk-news/2024/apr/05/",
                "type": "article",
                "sectionId": "uk-news",
                "sectionName": "UK news",
                "webPublicationDate": "2024-04-05T00:00:00Z",
                "webTitle": "Title 5",
                "webUrl": "https://www.theguardian.com/5/",
                "apiUrl": "https://content.guardianapis.com/5/",
                "isHosted": false,
                "pillarId": "pillar/news",
                "pillarName": "News"                
            },
            {
                "id": "uk-news/2024/apr/06/",
                "type": "article",
                "sectionId": "uk-news",
                "sectionName": "UK news",
                "webPublicationDate": "2024-04-06T00:00:00Z",
                "webTitle": "Title 6",
                "webUrl": "https://www.theguardian.com/6/",
                "apiUrl": "https://content.guardianapis.com/6/",
                "isHosted": false,
                "pillarId": "pillar/news",
                "pillarName": "News"                
            },
            {
                "id": "uk-news/2024/apr/07/",
                "type": "article",
                "sectionId": "uk-news",
                "sectionName": "UK news",
                "webPublicationDate": "2024-04-07T00:00:00Z",
                "webTitle": "Title 7",
                "webUrl": "https://www.theguardian.com/7/",
                "apiUrl": "https://content.guardianapis.com/7/",
                "isHosted": false,
                "pillarId": "pillar/news",
                "pillarName": "News"                
            },
            {
                "id": "uk-news/2024/apr/08/",
                "type": "article",
                "sectionId": "uk-news",
                "sectionName": "UK news",
                "webPublicationDate": "2024-04-08T00:00:00Z",
                "webTitle": "Title 8",
                "webUrl": "https://www.theguardian.com/8/",
                "apiUrl": "https://content.guardianapis.com/8/",
                "isHosted": false,
                "pillarId": "pillar/news",
                "pillarName": "News"                
            },
            {
                "id": "uk-news/2024/apr/09/",
                "type": "article",
                "sectionId": "uk-news",
                "sectionName": "UK news",
                "webPublicationDate": "2024-04-09T00:00:00Z",
                "webTitle": "Title 9",
                "webUrl": "https://www.theguardian.com/9/",
                "apiUrl": "https://content.guardianapis.com/9/",
                "isHosted": false,
                "pillarId": "pillar/news",
                "pillarName": "News"                
            },
            {
                "id": "uk-news/2024/apr/10/",
                "type": "article",
                "sectionId": "uk-news",
                "sectionName": "UK news",
                "webPublicationDate": "2024-04-10T00:00:00Z",
                "webTitle": "Title 10",
                "webUrl": "https://www.theguardian.com/10/",
                "apiUrl": "https://content.guardianapis.com/10/",
                "isHosted": false,
                "pillarId": "pillar/news",
                "pillarName": "News"                
            }
        ]
    }
}