{
    "response": {
        "status": "ok",
        "userTier": "developer",
        "total": 1663,
        "startIndex": 1,
        "pageSize": 10,
        "currentPage": 1,
        "pages": 167,
        "orderBy": "relevance",
        "results": [
            {
                "id": "uk-news/2024/apr/19/football-sized-swollen-hedgehog-bounce-gloucestershire",
                "type": "article",
                "sectionId": "uk-news",
                "sectionName": "UK news",
                "webPublicationDate": "2024-04-19T09:50:43Z",
                "webTitle": "Rescuers deflate football-sized swollen hedgehog",
                "webUrl": "https://www.theguardian.com/uk-news/2024/apr/19/football-sized-swollen-hedgehog-bounce-gloucestershire",
                "apiUrl": "https://content.guardianapis.com/uk-news/2024/apr/19/football-sized-swollen-hedgehog-bounce-gloucestershire",
                "isHosted": false,
                "pillarId": "pillar/news",
                "pillarName": "News"
            },
            {
                "id": "football/2024/apr/20/invincibles-unbeaten-girls-football-team-win-boys-league",
                "type": "article",
                "sectionId": "football",
                "sectionName": "Football",
                "webPublicationDate": "2024-04-20T18:19:07Z",
                "webTitle": "‘Invincibles’: unbeaten girls’ football team wins boys’ league",
                "webUrl": "https://www.theguardian.com/football/2024/apr/20/invincibles-unbeaten-girls-football-team-win-boys-league",
                "apiUrl": "https://content.guardianapis.com/football/2024/apr/20/invincibles-unbeaten-girls-football-team-win-boys-league",
                "isHosted": false,
                "pillarId": "pillar/sport",
                "pillarName": "Sport"
            },
            {
                "id": "money/article/2024/may/19/viagogo-mistakenly-listed-resale-of-england-football-match-tickets",
                "type": "article",
                "sectionId": "money",
                "sectionName": "Money",
                "webPublicationDate": "2024-05-19T10:43:27Z",
                "webTitle": "Viagogo ‘mistakenly’ listed resale of England football match tickets",
                "webUrl": "https://www.theguardian.com/money/article/2024/may/19/viagogo-mistakenly-listed-resale-of-england-football-match-tickets",
                "apiUrl": "https://content.guardianapis.com/money/article/2024/may/19/viagogo-mistakenly-listed-resale-of-england-football-match-tickets",
                "isHosted": false,
                "pillarId": "pillar/lifestyle",
                "pillarName": "Lifestyle"
            },
            {
                "id": "travel/article/2024/may/11/ruhr-guide-football-heritage-germany-euro-2024-city-breaks",
                "type": "article",
                "sectionId": "travel",
                "sectionName": "Travel",
                "webPublicationDate": "2024-05-11T06:00:20Z",
                "webTitle": "Germany’s football factory: a travel guide to the Ruhr",
                "webUrl": "https://www.theguardian.com/travel/article/2024/may/11/ruhr-guide-football-heritage-germany-euro-2024-city-breaks",
                "apiUrl": "https://content.guardianapis.com/travel/article/2024/may/11/ruhr-guide-football-heritage-germany-euro-2024-city-breaks",
                "isHosted": false,
                "pillarId": "pillar/lifestyle",
                "pillarName": "Lifestyle"
            },
            {
                "id": "football/2024/mar/14/football-daily-email-big-cup-then-there-were-eight",
                "type": "article",
                "sectionId": "football",
                "sectionName": "Football",
                "webPublicationDate": "2024-03-14T15:59:38Z",
                "webTitle": "Football Daily | Eight European powerhouses prepare to collide",
                "webUrl": "https://www.theguardian.com/football/2024/mar/14/football-daily-email-big-cup-then-there-were-eight",
                "apiUrl": "https://content.guardianapis.com/football/2024/mar/14/football-daily-email-big-cup-then-there-were-eight",
                "isHosted": false,
                "pillarId": "pillar/sport",
                "pillarName": "Sport"
            },
            {
                "id": "football/article/2024/may/14/government-should-harness-clubs-to-build-social-connection-report-claims",
                "type": "article",
                "sectionId": "football",
                "sectionName": "Football",
                "webPublicationDate": "2024-05-14T07:00:31Z",
                "webTitle": "UK government urged to harness football clubs for ‘social connection’",
                "webUrl": "https://www.theguardian.com/football/article/2024/may/14/government-should-harness-clubs-to-build-social-connection-report-claims",
                "apiUrl": "https://content.guardianapis.com/football/article/2024/may/14/government-should-harness-clubs-to-build-social-connection-report-claims",
                "isHosted": false,
                "pillarId": "pillar/sport",
                "pillarName": "Sport"
            },
            {
                "id": "football/article/2024/may/16/fresh-allegation-zambia-womens-head-coach-bruce-mwape",
                "type": "article",
                "sectionId": "football",
                "sectionName": "Football",
                "webPublicationDate": "2024-05-16T07:00:01Z",
                "webTitle": "Fresh allegation made against Zambia women’s football team head coach ",
                "webUrl": "https://www.theguardian.com/football/article/2024/may/16/fresh-allegation-zambia-womens-head-coach-bruce-mwape",
                "apiUrl": "https://content.guardianapis.com/football/article/2024/may/16/fresh-allegation-zambia-womens-head-coach-bruce-mwape",
                "isHosted": false,
                "pillarId": "pillar/sport",
                "pillarName": "Sport"
            },
            {
                "id": "football/article/2024/may/13/parliament-urged-to-look-at-sportwashing-clause-in-football-bill",
                "type": "article",
                "sectionId": "football",
                "sectionName": "Football",
                "webPublicationDate": "2024-05-12T23:01:08Z",
                "webTitle": "Parliament urged to look at sportswashing clause in football bill",
                "webUrl": "https://www.theguardian.com/football/article/2024/may/13/parliament-urged-to-look-at-sportwashing-clause-in-football-bill",
                "apiUrl": "https://content.guardianapis.com/football/article/2024/may/13/parliament-urged-to-look-at-sportwashing-clause-in-football-bill",
                "isHosted": false,
                "pillarId": "pillar/sport",
                "pillarName": "Sport"
            },
            {
                "id": "education/2024/apr/17/football-based-mentoring-found-to-boost-wellbeing-for-at-risk-pupils-in-england",
                "type": "article",
                "sectionId": "education",
                "sectionName": "Education",
                "webPublicationDate": "2024-04-18T11:53:55Z",
                "webTitle": "Football coaching boosts wellbeing of troubled pupils, study finds",
                "webUrl": "https://www.theguardian.com/education/2024/apr/17/football-based-mentoring-found-to-boost-wellbeing-for-at-risk-pupils-in-england",
                "apiUrl": "https://content.guardianapis.com/education/2024/apr/17/football-based-mentoring-found-to-boost-wellbeing-for-at-risk-pupils-in-england",
                "isHosted": false,
                "pillarId": "pillar/news",
                "pillarName": "News"
            },
            {
                "id": "football/article/2024/may/06/premier-league-10-talking-points-from-the-weekend-football-action",
                "type": "article",
                "sectionId": "football",
                "sectionName": "Football",
                "webPublicationDate": "2024-05-06T07:10:40Z",
                "webTitle": "Premier League: 10 talking points from the weekend’s football action",
                "webUrl": "https://www.theguardian.com/football/article/2024/may/06/premier-league-10-talking-points-from-the-weekend-football-action",
                "apiUrl": "https://content.guardianapis.com/football/article/2024/may/06/premier-league-10-talking-points-from-the-weekend-football-action",
                "isHosted": false,
                "pillarId": "pillar/sport",
                "pillarName": "Sport"
            }
        ]
    }
}